tidyverse__data_wrangling.knit
…
                            peptide = c(paste(letters,"_1",sep=""),paste(letters,"_2",sep=""),paste(letters,"_3",sep="")),
                            Condition1_BR1 = rnorm(n = 78,mean = 100,sd =1),
                            Condition1_BR2 = rnorm(n = 78,mean = 110,sd =1),
                            Condition1_BR3 = rnorm(n = 78,mean = 105,sd =1),
                            Condition1_BR4 = rnorm(n = 78,mean = 115,sd =1),
                            Condition1_BR5 = rnorm(n = 78,mean = 115,sd =1),
                            Condition2_BR1 = rnorm(n = 78,mean = 100*4,sd =1),
                            Condition2_BR2 = rnorm(n = 78,mean = 110*4,sd =1),
                            Condition2_BR3 = rnorm(n = 78,mean = 105*4,sd =1),
                            Condition2_BR4 = rnorm(n = 78,mean = 115*4,sd =1),
                            Condition2_BR5 = rnorm(n = 78,mean = 115*4,sd =1)
)
normal_messy_data

## # A tibble: 78 × 12
##    protein   peptide Condition…¹ Condi…² Condi…³ Condi…⁴ Condi…⁵ Condi…⁶ Condi…⁷
##    <chr>     <chr>         <dbl>   <dbl>   <dbl>   <dbl>   <dbl>   <dbl>   <dbl>
##  1 protein_1 a_1           101.     109.    106.    115.    115.    400.    439.
##  2 protein_1 b_1           102.     109.    106.    115.    114.    400.    439.
##  3 protein_1 c_1            99.6    111.    106.    113.    114.    398.    442.
##  4 protein_1 d_1           102.     111.    104.    115.    116.    401.    439.
##  5 protein_1 e_1            97.8    110.    105.    114.    116.    401.    440.
##  6 protein_1 f_1           101.     109.    106.    114.    114.    401.    438.
##  7 protein_1 g_1            98.7    110.    105.    116.    113.    401.    440.
##  8 protein_1 h_1            99.2    111.    107.    113.    114.    399.    439.
##  9 protein_1 i_1            98.2    110.    104.    114.    113.    400.    439.
## 10 protein_1 j_1           100.     111.    106.    114.    115.    402.    440.
## # … with 68 more rows, 3 more variables: Condition2_BR3 <dbl>,
## #   Condition2_BR4 <dbl>, Condition2_BR5 <dbl>, and abbreviated variable names
## #   ¹​Condition1_BR1, ²​Condition1_BR2, ³​Condition1_BR3, ⁴​Condition1_BR4,
## #   ⁵​Condition1_BR5, ⁶​Condition2_BR1, ⁷​Condition2_BR2

can be easily transformed to a tidy tibble using the reshape function
of tidyr:

pivot_longer() to make things tidy (long data format)
(old: gather())

normal_tidy_data <- normal_messy_data %>% 
                  pivot_longer(colnames(normal_messy_data)[-c(1:2)],
                               names_to = "samples",
                               values_to = "intensity")
normal_tidy_data

## # A tibble: 780 × 4
##    protein   peptide samples        intensity
##    <chr>     <chr>   <chr>              <dbl>
##  1 protein_1 a_1     Condition1_BR1      101.
##  2 protein_1 a_1     Condition1_BR2      109.
##  3 protein_1 a_1     Condition1_BR3      106.
##  4 protein_1 a_1     Condition1_BR4      115.
##  5 protein_1 a_1     Condition1_BR5      115.
##  6 protein_1 a_1     Condition2_BR1      400.
##  7 protein_1 a_1     Condition2_BR2      439.
##  8 protein_1 a_1     Condition2_BR3      420.
##  9 protein_1 a_1     Condition2_BR4      460.
## 10 protein_1 a_1     Condition2_BR5      460.
## # … with 770 more rows

Now we have some tidy data, which can be multidimensional. A back
transformation is quiet easy but I would always recommend to include a
column select() (less error prone)

pivot_wider() to make data wide again (old:
spread())

select() select only column needed (see below)

normal_tidy_data %>% pivot_wider(names_from = "samples",values_from = "intensity")

## # A tibble: 78 × 12
##    protein   peptide Condition…¹ Condi…² Condi…³ Condi…⁴ Condi…⁵ Condi…⁶ Condi…⁷
##    <chr>     <chr>         <dbl>   <dbl>   <dbl>   <dbl>   <dbl>   <dbl>   <dbl>
##  1 protein_1 a_1           101.     109.    106.    115.    115.    400.    439.
##  2 protein_1 b_1           102.     109.    106.    115.    114.    400.    439.
##  3 protein_1 c_1            99.6    111.    106.    113.    114.    398.    442.
##  4 protein_1 d_1           102.     111.    104.    115.    116.    401.    439.
##  5 protein_1 e_1            97.8    110.    105.    114.    116.    401.    440.
##  6 protein_1 f_1           101.     109.    106.    114.    114.    401.    438.
##  7 protein_1 g_1            98.7    110.    105.    116.    113.    401.    440.
##  8 protein_1 h_1            99.2    111.    107.    113.    114.    399.    439.
##  9 protein_1 i_1            98.2    110.    104.    114.    113.    400.    439.
## 10 protein_1 j_1           100.     111.    106.    114.    115.    402.    440.
## # … with 68 more rows, 3 more variables: Condition2_BR3 <dbl>,
## #   Condition2_BR4 <dbl>, Condition2_BR5 <dbl>, and abbreviated variable names
## #   ¹​Condition1_BR1, ²​Condition1_BR2, ³​Condition1_BR3, ⁴​Condition1_BR4,
## #   ⁵​Condition1_BR5, ⁶​Condition2_BR1, ⁷​Condition2_BR2

But first lets clean our tidy data by separate columns using
separate() function

normal_tidy_data_cleaned <- normal_tidy_data %>% 
                            separate(col = "samples",
                                     into = c("condition","replicate"),
                                     sep = "_",
                                     remove = F)
normal_tidy_data_cleaned

## # A tibble: 780 × 6
##    protein   peptide samples        condition  replicate intensity
##    <chr>     <chr>   <chr>          <chr>      <chr>         <dbl>
##  1 protein_1 a_1     Condition1_BR1 Condition1 BR1            101.
##  2 protein_1 a_1     Condition1_BR2 Condition1 BR2            109.
##  3 protein_1 a_1     Condition1_BR3 Condition1 BR3            106.
##  4 protein_1 a_1     Condition1_BR4 Condition1 BR4            115.
##  5 protein_1 a_1     Condition1_BR5 Condition1 BR5            115.
##  6 protein_1 a_1     Condition2_BR1 Condition2 BR1            400.
##  7 protein_1 a_1     Condition2_BR2 Condition2 BR2            439.
##  8 protein_1 a_1     Condition2_BR3 Condition2 BR3            420.
##  9 protein_1 a_1     Condition2_BR4 Condition2 BR4            460.
## 10 protein_1 a_1     Condition2_BR5 Condition2 BR5            460.
## # … with 770 more rows

Lets reshape normal_tidy_data_cleaned to wide format
using the same code used above

  normal_tidy_data_cleaned %>% pivot_wider(names_from = "samples",values_from = "intensity")

## # A tibble: 780 × 14
##    protein   peptide condition  replic…¹ Condi…² Condi…³ Condi…⁴ Condi…⁵ Condi…⁶
##    <chr>     <chr>   <chr>      <chr>      <dbl>   <dbl>   <dbl>   <dbl>   <dbl>
##  1 protein_1 a_1     Condition1 BR1         101.     NA      NA      NA      NA 
##  2 protein_1 a_1     Condition1 BR2          NA     109.     NA      NA      NA 
##  3 protein_1 a_1     Condition1 BR3          NA      NA     106.     NA      NA 
##  4 protein_1 a_1     Condition1 BR4          NA      NA      NA     115.     NA 
##  5 protein_1 a_1     Condition1 BR5          NA      NA      NA      NA     115.
##  6 protein_1 a_1     Condition2 BR1          NA      NA      NA      NA      NA 
##  7 protein_1 a_1     Condition2 BR2          NA      NA      NA      NA      NA 
##  8 protein_1 a_1     Condition2 BR3          NA      NA      NA      NA      NA 
##  9 protein_1 a_1     Condition2 BR4          NA      NA      NA      NA      NA 
## 10 protein_1 a_1     Condition2 BR5          NA      NA      NA      NA      NA 
## # … with 770 more rows, 5 more variables: Condition2_BR1 <dbl>,
## #   Condition2_BR2 <dbl>, Condition2_BR3 <dbl>, Condition2_BR4 <dbl>,
## #   Condition2_BR5 <dbl>, and abbreviated variable names ¹​replicate,
## #   ²​Condition1_BR1, ³​Condition1_BR2, ⁴​Condition1_BR3, ⁵​Condition1_BR4,
## #   ⁶​Condition1_BR5

MHH, something is wrong. Because a important column, which also
describes the column in the wide format exists in the tidy format. The
spread() function tries to match the rows with the addition
replicate column resulting in the diagonal wide format error.
It is important to use the above mentioned select() function to generete
the wide format (2 dimension: rows (protein, peptide) and column
(samples) with a value).

normal_tidy_data_cleaned %>% dplyr::select(protein,peptide,samples,intensity)

## # A tibble: 780 × 4
##    protein   peptide samples        intensity
##    <chr>     <chr>   <chr>              <dbl>
##  1 protein_1 a_1     Condition1_BR1      101.
##  2 protein_1 a_1     Condition1_BR2      109.
##  3 protein_1 a_1     Condition1_BR3      106.
##  4 protein_1 a_1     Condition1_BR4      115.
##  5 protein_1 a_1     Condition1_BR5      115.
##  6 protein_1 a_1     Condition2_BR1      400.
##  7 protein_1 a_1     Condition2_BR2      439.
##  8 protein_1 a_1     Condition2_BR3      420.
##  9 protein_1 a_1     Condition2_BR4      460.
## 10 protein_1 a_1     Condition2_BR5      460.
## # … with 770 more rows

normal_tidy_data_cleaned %>% 
  dplyr::select(protein,peptide,samples,intensity) %>%
  pivot_wider(names_from = "samples",values_from = "intensity")

## # A tibble: 78 × 12
##    protein   peptide Condition…¹ Condi…² Condi…³ Condi…⁴ Condi…⁵ Condi…⁶ Condi…⁷
##    <chr>     <chr>         <dbl>   <dbl>   <dbl>   <dbl>   <dbl>   <dbl>   <dbl>
##  1 protein_1 a_1           101.     109.    106.    115.    115.    400.    439.
##  2 protein_1 b_1           102.     109.    106.    115.    114.    400.    439.
##  3 protein_1 c_1            99.6    111.    106.    113.    114.    398.    442.
##  4 protein_1 d_1           102.     111.    104.    115.    116.    401.    439.
##  5 protein_1 e_1            97.8    110.    105.    114.    116.    401.    440.
##  6 protein_1 f_1           101.     109.    106.    114.    114.    401.    438.
##  7 protein_1 g_1            98.7    110.    105.    116.    113.    401.    440.
##  8 protein_1 h_1            99.2    111.    107.    113.    114.    399.    439.
##  9 protein_1 i_1            98.2    110.    104.    114.    113.    400.    439.
## 10 protein_1 j_1           100.     111.    106.    114.    115.    402.    440.
## # … with 68 more rows, 3 more variables: Condition2_BR3 <dbl>,
## #   Condition2_BR4 <dbl>, Condition2_BR5 <dbl>, and abbreviated variable names
## #   ¹​Condition1_BR1, ²​Condition1_BR2, ³​Condition1_BR3, ⁴​Condition1_BR4,
## #   ⁵​Condition1_BR5, ⁶​Condition2_BR1, ⁷​Condition2_BR2
…
Note: if you have none standard column names
e.g. have a SPACE like “protein function” you can rename the column to
e.g. “protein_function” or use backticks `protein function`
to use them inside tidyverse function.

normal_column_mess <- tibble("protein IDs" = c(rep("protein_1",26),rep("protein_2",26),rep("protein_3",26)),
                            "stripped-peptides" = c(paste(letters,"_1",sep=""),paste(letters,"_2",sep=""),paste(letters,"_3",sep="")),
                            Condition1_BR1 = rnorm(n = 78,mean = 100,sd =1),
                            Condition1_BR2 = rnorm(n = 78,mean = 110,sd =1),
                            Condition1_BR3 = rnorm(n = 78,mean = 105,sd =1),
                            Condition1_BR4 = rnorm(n = 78,mean = 115,sd =1)
)
normal_column_mess

## # A tibble: 78 × 6
##    `protein IDs` `stripped-peptides` Condition1_BR1 Condition1…¹ Condi…² Condi…³
##    <chr>         <chr>                        <dbl>        <dbl>   <dbl>   <dbl>
##  1 protein_1     a_1                          101.          109.    104.    114.
##  2 protein_1     b_1                           99.6         112.    105.    116.
##  3 protein_1     c_1                          101.          110.    106.    114.
##  4 protein_1     d_1                          101.          109.    105.    114.
##  5 protein_1     e_1                          101.          111.    106.    115.
##  6 protein_1     f_1                          101.          109.    105.    115.
##  7 protein_1     g_1                          100.          108.    103.    116.
##  8 protein_1     h_1                          100.          111.    105.    116.
##  9 protein_1     i_1                           99.8         109.    107.    115.
## 10 protein_1     j_1                           99.6         111.    106.    115.
## # … with 68 more rows, and abbreviated variable names ¹​Condition1_BR2,
## #   ²​Condition1_BR3, ³​Condition1_BR4

normal_column_mess %>% dplyr::select(stripped-peptides)
#will result in:
# Error in `select()`:
# ! object 'stripped' not found
# Backtrace:
#   1. normal_column_mess %>% select(stripped - peptides)
#  24. base::.handleSimpleError(...)
#  25. rlang (local) h(simpleError(msg, call))
#  26. handlers[[1L]](cnd)

# using backticks is going to work
normal_column_mess %>% dplyr::select(`stripped-peptides`)

## # A tibble: 78 × 1
##    `stripped-peptides`
##    <chr>              
##  1 a_1                
##  2 b_1                
##  3 c_1                
##  4 d_1                
##  5 e_1                
##  6 f_1                
##  7 g_1                
##  8 h_1                
##  9 i_1                
## 10 j_1                
## # … with 68 more rows

# using quotes is going to work as well
normal_column_mess %>% dplyr::select("stripped-peptides")

## # A tibble: 78 × 1
##    `stripped-peptides`
##    <chr>              
##  1 a_1                
##  2 b_1                
##  3 c_1                
##  4 d_1                
##  5 e_1                
##  6 f_1                
##  7 g_1                
##  8 h_1                
##  9 i_1                
## 10 j_1                
## # … with 68 more rows
…
#Average, SD, CV over Replicates per peptide/protein
normal_tidy_data_cleaned_summary <- normal_tidy_data_cleaned %>%
  group_by(condition,protein,peptide) %>% 
  summarise(mean_peptide_intensity = mean(intensity),
            sd_peptide_intensity = sd(intensity),
            cv_peptide_intensity = sd(intensity)/mean(intensity)) %>% 
  ungroup()

## `summarise()` has grouped output by 'condition', 'protein'. You can override
## using the `.groups` argument.

normal_tidy_data_cleaned_summary

## # A tibble: 156 × 6
##    condition  protein   peptide mean_peptide_intensity sd_peptide_inte…¹ cv_pe…²
##    <chr>      <chr>     <chr>                    <dbl>             <dbl>   <dbl>
##  1 Condition1 protein_1 a_1                       109.              6.13  0.0561
##  2 Condition1 protein_1 b_1                       109.              5.42  0.0496
##  3 Condition1 protein_1 c_1                       109.              6.14  0.0564
##  4 Condition1 protein_1 d_1                       110.              6.37  0.0581
##  5 Condition1 protein_1 e_1                       108.              7.42  0.0684
##  6 Condition1 protein_1 f_1                       109.              5.77  0.0530
##  7 Condition1 protein_1 g_1                       108.              6.88  0.0635
##  8 Condition1 protein_1 h_1                       109.              6.02  0.0553
##  9 Condition1 protein_1 i_1                       108.              6.76  0.0626
## 10 Condition1 protein_1 j_1                       109.              6.44  0.0589
## # … with 146 more rows, and abbreviated variable names ¹​sd_peptide_intensity,
## #   ²​cv_peptide_intensity
…
adding ranks

Now we would like to add ranks for peptide-intensity per protein and
condition

#rank peptides per protein and condition
# higher rank number = higher intensity
normal_tidy_data_cleaned_summary %>% 
  group_by(protein,condition) %>% 
  mutate(rank = dense_rank(mean_peptide_intensity))

## # A tibble: 156 × 7
## # Groups:   protein, condition [6]
##    condition  protein   peptide mean_peptide_intensity sd_peptid…¹ cv_pe…²  rank
##    <chr>      <chr>     <chr>                    <dbl>       <dbl>   <dbl> <int>
##  1 Condition1 protein_1 a_1                       109.        6.13  0.0561    18
##  2 Condition1 protein_1 b_1                       109.        5.42  0.0496    22
##  3 Condition1 protein_1 c_1                       109.        6.14  0.0564    10
##  4 Condition1 protein_1 d_1                       110.        6.37  0.0581    25
##  5 Condition1 protein_1 e_1                       108.        7.42  0.0684     7
##  6 Condition1 protein_1 f_1                       109.        5.77  0.0530     9
##  7 Condition1 protein_1 g_1                       108.        6.88  0.0635     6
##  8 Condition1 protein_1 h_1                       109.        6.02  0.0553    11
##  9 Condition1 protein_1 i_1                       108.        6.76  0.0626     2
## 10 Condition1 protein_1 j_1                       109.        6.44  0.0589    20
## # … with 146 more rows, and abbreviated variable names ¹​sd_peptide_intensity,
## #   ²​cv_peptide_intensity
…
