tidyverse__broom.knit
…
## # A tibble: 3 × 13
##   model r.squared adj.r…¹ sigma stati…² p.value    df logLik   AIC   BIC devia…³
##   <chr>     <dbl>   <dbl> <dbl>   <dbl>   <dbl> <dbl>  <dbl> <dbl> <dbl>   <dbl>
## 1 fit3      0.903   0.857  26.0    19.5 1.90e-8    10  -143.  310.  327.  14165.
## 2 fit1      0.693   0.683  38.6    67.7 3.48e-9     1  -161.  329.  333.  44743.
## 3 fit2      0.709   0.689  38.2    35.4 1.66e-8     2  -160.  329.  335.  42369.
## # … with 2 more variables: df.residual <int>, nobs <int>, and abbreviated
## #   variable names ¹​adj.r.squared, ²​statistic, ³​deviance

augment() - adds informations about observations to a
dataset

augment(fit)

## # A tibble: 150 × 9
##    Sepal.Width Petal.Len…¹ Petal…² .fitted  .resid   .hat .sigma .cooksd .std.…³
##          <dbl>       <dbl>   <dbl>   <dbl>   <dbl>  <dbl>  <dbl>   <dbl>   <dbl>
##  1         3.5         1.4     0.2    3.30  0.200  0.0187  0.390 1.71e-3   0.519
##  2         3           1.4     0.2    3.30 -0.300  0.0187  0.390 3.84e-3  -0.778
##  3         3.2         1.3     0.2    3.33 -0.126  0.0198  0.390 7.13e-4  -0.326
##  4         3.1         1.5     0.2    3.27 -0.174  0.0182  0.390 1.26e-3  -0.452
##  5         3.6         1.4     0.2    3.30  0.300  0.0187  0.390 3.85e-3   0.778
##  6         3.9         1.7     0.4    3.30  0.604  0.0163  0.387 1.35e-2   1.57 
##  7         3.4         1.4     0.3    3.34  0.0637 0.0197  0.391 1.83e-4   0.165
##  8         3.4         1.5     0.2    3.27  0.126  0.0182  0.390 6.59e-4   0.326
##  9         2.9         1.4     0.2    3.30 -0.400  0.0187  0.389 6.83e-3  -1.04 
## 10         3.1         1.5     0.1    3.24 -0.138  0.0217  0.390 9.48e-4  -0.358
## # … with 140 more rows, and abbreviated variable names ¹​Petal.Length,
## #   ²​Petal.Width, ³​.std.resid
