useful_packages___gganatogram.knit
…
other_key

The other_key list contains 24 data frames with different organisms.
In the following examples we selected some of them but recall that there
are more options available to choose.

## # A tibble: 24 × 1
##    value                               
##    <chr>                               
##  1 anolis_carolinensis                 
##  2 arabidopsis_thaliana                
##  3 bos_taurus                          
##  4 brachypodium_distachyon.flower_parts
##  5 brachypodium_distachyon.whole_plant 
##  6 gallus_gallus                       
##  7 hordeum_vulgare.flower_parts        
##  8 hordeum_vulgare.whole_plant         
##  9 macaca_mulatta                      
## 10 monodelphis_domestica               
## # … with 14 more rows
…
